<?xml version="1.0" encoding="UTF-8" standalone="no"?>
<svg
   xmlns:dc="http://purl.org/dc/elements/1.1/"
   xmlns:cc="http://creativecommons.org/ns#"
   xmlns:rdf="http://www.w3.org/1999/02/22-rdf-syntax-ns#"
   xmlns:svg="http://www.w3.org/2000/svg"
   xmlns="http://www.w3.org/2000/svg"
   xmlns:sodipodi="http://sodipodi.sourceforge.net/DTD/sodipodi-0.dtd"
   xmlns:inkscape="http://www.inkscape.org/namespaces/inkscape"
   version="1.1"
   id="svg885"
   width="260"
   height="260"
   viewBox="0 0 260 260"
   sodipodi:docname="borgBuddy2.svg"
   inkscape:version="1.0.2 (e86c870879, 2021-01-15)">
  <metadata
     id="metadata891">
    <rdf:RDF>
      <cc:Work
         rdf:about="">
        <dc:format>image/svg+xml</dc:format>
        <dc:type
           rdf:resource="http://purl.org/dc/dcmitype/StillImage" />
        <dc:title></dc:title>
      </cc:Work>
    </rdf:RDF>
  </metadata>
  <defs
     id="defs889" />
  <sodipodi:namedview
     pagecolor="#ffffff"
     bordercolor="#666666"
     borderopacity="1"
     objecttolerance="10"
     gridtolerance="10"
     guidetolerance="10"
     inkscape:pageopacity="0"
     inkscape:pageshadow="2"
     inkscape:window-width="1832"
     inkscape:window-height="1002"
     id="namedview887"
     showgrid="false"
     inkscape:zoom="2.9923077"
     inkscape:cx="76.529563"
     inkscape:cy="129.66581"
     inkscape:window-x="0"
     inkscape:window-y="0"
     inkscape:window-maximized="1"
     inkscape:current-layer="g1104" />
  <g
     inkscape:groupmode="layer"
     inkscape:label="Image"
     id="g893">
    <g
       id="g957"
       transform="translate(14.474614,-2.903358)">
      <text
         xml:space="preserve"
         style="font-style:normal;font-variant:normal;font-weight:normal;font-stretch:normal;font-size:42.1621px;line-height:1.25;font-family:'Pokemon Classic';-inkscape-font-specification:'Pokemon Classic';letter-spacing:0px;word-spacing:0px;stroke-width:2.34235"
         x="29.211845"
         y="217.54187"
         id="text923"><tspan
           sodipodi:role="line"
           id="tspan921"
           x="29.211845"
           y="217.54187"
           style="font-style:normal;font-variant:normal;font-weight:normal;font-stretch:normal;font-family:'Pokemon Classic';-inkscape-font-specification:'Pokemon Classic';stroke-width:2.34235">Borg</tspan></text>
      <text
         xml:space="preserve"
         style="font-style:normal;font-variant:normal;font-weight:normal;font-stretch:normal;font-size:61.1431px;line-height:1.25;font-family:'Comic Sans MS';-inkscape-font-specification:'Comic Sans MS';letter-spacing:0px;word-spacing:0px;fill:#aad400;stroke-width:3.39684"
         x="93.444702"
         y="248.73813"
         id="text927"><tspan
           sodipodi:role="line"
           id="tspan925"
           x="93.444702"
           y="248.73813"
           style="font-style:normal;font-variant:normal;font-weight:normal;font-stretch:normal;font-family:'Kiss Boom';-inkscape-font-specification:'Kiss Boom';fill:#aad400;stroke-width:3.39684">Buddy</tspan></text>
    </g>
    <g
       id="g1104"
       transform="matrix(0.90875076,0,0,0.90875076,2.716249,3.25424)">
      <g
         id="g999-3"
         transform="translate(-92.555994,-0.32329375)">
        <path
           style="fill:#614113;stroke-width:0.737029;fill-opacity:1"
           d="m 172.52731,174.84958 c -9.69632,-2.19451 -20.43919,-8.42636 -29.90276,-17.34636 -3.24293,-3.05666 -9.63103,-8.36539 -14.19579,-11.79719 -7.72239,-5.8057 -8.49909,-6.62402 -11.16896,-11.76733 -2.52635,-4.86684 -5.74581,-14.06588 -7.02899,-20.08405 -0.23768,-1.11476 -0.86551,-2.02684 -1.39518,-2.02684 -0.52967,0 -1.73944,-0.82646 -2.6884,-1.83657 -2.34583,-2.49703 -2.25229,-5.75218 0.24004,-8.35362 1.74034,-1.81653 1.96541,-2.632687 1.96541,-7.127136 0,-2.791632 0.36401,-8.743417 0.8089,-13.226199 l 0.8089,-8.150513 -2.89999,-6.26475 c -4.93504,-10.661025 -6.39268,-15.845126 -6.42427,-22.847911 -0.0336,-7.454585 1.4996,-11.481847 6.13666,-16.118903 6.35551,-6.355514 16.72617,-9.869374 33.17631,-11.24104 8.52072,-0.710485 10.92572,-1.204063 15.93189,-3.2697 9.74408,-4.0205891 14.51394,-5.0030707 24.32197,-5.0097614 10.90405,-0.00744 16.4816,1.292238 26.53306,6.1827144 12.19261,5.932244 20.87554,14.61429 26.979,26.976266 4.94819,10.02207 6.52973,17.731487 6.55677,31.961599 l 0.0203,10.686927 3.62816,2.000732 c 10.98739,6.058934 10.52454,22.121965 -0.80397,27.901345 -1.96683,1.0034 -2.93767,2.05101 -3.20411,3.45746 -1.46109,7.71287 -3.04215,12.53039 -6.22561,18.96955 -12.57466,25.43474 -40.58828,42.98925 -61.16934,38.33128 z M 145.57619,69.512099 c 5.03273,-5.032728 1.8746,-12.961488 -5.16273,-12.961488 -7.03733,0 -10.19546,7.92876 -5.16273,12.961488 1.36407,1.364078 2.56842,1.779099 5.16273,1.779099 2.59431,0 3.79866,-0.415021 5.16273,-1.779099 z M 122.39591,53.003338 c 2.57431,-8.977553 6.5313,-16.647397 11.86741,-23.002669 4.91718,-5.856322 4.99551,-5.797331 -4.96734,-3.741142 -19.28071,3.979261 -24.50785,12.621933 -18.00781,29.774522 l 1.61969,4.27413 3.75992,-0.220469 3.75991,-0.220467 z"
           id="path1013-9" />
        <path
           style="fill:#fc9913;stroke-width:0.737029"
           d="m 128.24986,145.66495 c -6.61389,-5.03893 -8.13789,-6.61107 -10.50512,-10.83695 -2.37033,-4.2314 -6.08744,-14.52051 -7.51041,-20.7891 -0.23005,-1.01341 -1.49377,-2.51043 -2.80827,-3.3267 -1.97792,-1.22823 -2.42838,-2.00806 -2.61256,-4.52282 -0.185,-2.52594 0.0948,-3.28834 1.65832,-4.51818 1.71234,-1.34693 1.88068,-1.965264 1.87884,-6.901135 -0.001,-2.981903 0.3699,-8.982449 0.82446,-13.334542 l 0.82648,-7.912895 -3.74299,-8.670267 c -2.05865,-4.768646 -4.28644,-10.991908 -4.95066,-13.829471 -3.760131,-16.063411 4.28885,-27.259488 23.01131,-32.008588 5.86348,-1.487318 17.55392,-3.000308 23.18252,-3.000308 h 3.09275 l -5.37469,3.869405 c -2.95608,2.128172 -5.74432,4.088075 -6.19608,4.355339 -0.45176,0.267264 -4.30523,1.129193 -8.56327,1.915396 -20.28405,3.745248 -25.81588,12.350026 -19.18587,29.843705 l 1.60615,4.237919 h 7.68585 7.68586 v -2.41561 c 0,-1.328584 0.5163,-3.152732 1.14733,-4.053661 1.08847,-1.554002 1.65359,-1.638053 11.01365,-1.638053 9.36006,0 9.92518,0.08405 11.01365,1.638053 0.63103,0.900929 1.14734,2.725077 1.14734,4.053661 v 2.41561 h 23.88794 23.88793 l 1.90809,2.267636 c 1.77065,2.104297 1.90809,2.791496 1.90809,9.540282 0,6.545801 -0.171,7.471451 -1.71102,9.261828 -1.3267,1.542389 -2.67809,2.120419 -6.01649,2.573449 -3.14187,0.426364 -4.81942,1.098218 -6.20716,2.485963 -1.79552,1.795521 -1.9145,2.384541 -2.13085,10.549927 -0.12603,4.756527 -0.56675,9.520967 -0.97938,10.587647 -1.02563,2.65137 -4.29303,4.04329 -11.69924,4.98387 -15.53129,1.97247 -28.65382,13.80027 -36.47512,32.87629 -1.16342,2.83756 -2.30563,5.39255 -2.53825,5.67775 -0.23262,0.2852 -3.90423,-2.13376 -8.15913,-5.37545 z m 16.17404,-35.08493 c 7.56144,-1.96131 7.65592,-2.01229 5.4198,-2.92473 -8.34758,-3.40616 -6.49695,-15.727269 2.36223,-15.727269 6.82016,0 10.25591,7.95094 5.74983,13.306119 -1.69844,2.01848 -1.77919,2.30231 -0.55278,1.94299 0.78992,-0.23144 2.828,-0.78018 4.52907,-1.21945 4.55324,-1.17578 6.12001,-3.57504 6.12001,-9.371862 0,-4.033747 -0.26459,-4.989394 -1.80907,-6.533868 -1.80836,-1.808368 -1.81528,-1.809076 -17.62842,-1.809076 -8.70065,0 -16.35625,0.206022 -17.01244,0.457828 -2.43409,0.934052 -3.34965,4.333482 -3.34965,12.437088 0,7.30824 0.11599,7.9249 1.80907,9.61798 2.35218,2.35219 4.72849,2.32311 14.36235,-0.17575 z m 1.15229,-41.067921 c 5.03273,-5.032728 1.8746,-12.961488 -5.16273,-12.961488 -7.03733,0 -10.19546,7.92876 -5.16273,12.961488 1.36407,1.364078 2.56842,1.779099 5.16273,1.779099 2.59431,0 3.79866,-0.415021 5.16273,-1.779099 z m 14.8599,77.938801 c -0.27024,-0.27024 -0.49135,-2.09439 -0.49135,-4.05366 v -3.56231 h 20.26831 20.26831 v 4.05366 4.05366 H 180.7044 c -10.87733,0 -19.99807,-0.2211 -20.26831,-0.49135 z m 79.84485,-47.3367 c 0,-16.56991 -0.0941,-16.329079 4.95081,-12.674585 8.18642,5.930205 8.12126,19.371645 -0.12111,24.985835 -5.09549,3.47072 -4.8297,4.14822 -4.8297,-12.31125 z m -32.198,6.59109 c -2.91319,-1.7763 -3.91644,-3.58576 -3.91644,-7.063711 0,-3.693114 3.90175,-7.714796 7.48085,-7.710801 6.134,0.0066 10.17534,5.949515 7.6562,11.258212 -1.24599,2.62572 -4.78125,4.95644 -7.50963,4.95092 -0.74947,-0.001 -2.41941,-0.64709 -3.71098,-1.43462 z"
           id="path1011-2" />
        <path
           style="fill:#d03940;stroke-width:0.737029"
           d="m 128.24986,145.66495 c -6.61389,-5.03893 -8.13789,-6.61107 -10.50512,-10.83695 -2.37033,-4.2314 -6.08744,-14.52051 -7.51041,-20.7891 -0.23005,-1.01341 -1.49377,-2.51043 -2.80827,-3.3267 -1.97792,-1.22823 -2.42838,-2.00806 -2.61256,-4.52282 -0.185,-2.52594 0.0948,-3.28834 1.65832,-4.51818 1.71234,-1.34693 1.88068,-1.965264 1.87884,-6.901135 -0.001,-2.981903 0.3699,-8.982449 0.82446,-13.334542 l 0.82648,-7.912895 -3.74299,-8.670267 c -2.05865,-4.768646 -4.28644,-10.991908 -4.95066,-13.829471 -3.760131,-16.063411 4.28885,-27.259488 23.01131,-32.008588 5.86348,-1.487318 17.55392,-3.000308 23.18252,-3.000308 h 3.09275 l -5.37469,3.869405 c -2.95608,2.128172 -5.74432,4.088075 -6.19608,4.355339 -0.45176,0.267264 -4.30523,1.129193 -8.56327,1.915396 -20.28405,3.745248 -25.81588,12.350026 -19.18587,29.843705 l 1.60615,4.237919 h 7.68585 7.68586 v -2.41561 c 0,-1.328584 0.5163,-3.152732 1.14733,-4.053661 1.08847,-1.554002 1.65359,-1.638053 11.01365,-1.638053 9.36006,0 9.92518,0.08405 11.01365,1.638053 0.63103,0.900929 1.14734,2.725077 1.14734,4.053661 v 2.41561 h 23.88794 23.88793 l 1.90809,2.267636 c 1.77065,2.104297 1.90809,2.791496 1.90809,9.540282 0,6.545801 -0.171,7.471451 -1.71102,9.261828 -1.3267,1.542389 -2.67809,2.120419 -6.01649,2.573449 -3.14187,0.426364 -4.81942,1.098218 -6.20716,2.485963 -1.79552,1.795521 -1.9145,2.384541 -2.13085,10.549927 -0.12603,4.756527 -0.56675,9.520967 -0.97938,10.587647 -1.02563,2.65137 -4.29303,4.04329 -11.69924,4.98387 -15.53129,1.97247 -28.65382,13.80027 -36.47512,32.87629 -1.16342,2.83756 -2.30563,5.39255 -2.53825,5.67775 -0.23262,0.2852 -3.90423,-2.13376 -8.15913,-5.37545 z m 15.96732,-35.02111 c 3.98845,-1.05657 7.37049,-2.03213 7.51564,-2.16792 0.14516,-0.13579 -0.8894,-0.72879 -2.29902,-1.31777 -3.33378,-1.39294 -4.96668,-3.81285 -4.96668,-7.360505 0,-2.267368 0.51775,-3.375565 2.5059,-5.363724 3.48646,-3.486466 6.97936,-3.486466 10.46582,0 3.43904,3.439038 3.54039,7.628439 0.26383,10.904999 l -2.24207,2.24207 2.05781,-0.49703 c 6.28102,-1.51706 7.64274,-2.09814 9.02007,-3.84914 1.16924,-1.48645 1.51358,-2.99909 1.51358,-6.649002 0,-4.033747 -0.26459,-4.989394 -1.80907,-6.533868 -1.80836,-1.808368 -1.81528,-1.809076 -17.62842,-1.809076 -8.70065,0 -16.35625,0.206022 -17.01244,0.457828 -2.43409,0.934052 -3.34965,4.333482 -3.34965,12.437088 0,7.30824 0.11599,7.9249 1.80907,9.61798 2.3473,2.3473 4.94981,2.32672 14.15563,-0.11193 z m 1.35901,-41.131741 c 5.03273,-5.032728 1.8746,-12.961488 -5.16273,-12.961488 -7.03733,0 -10.19546,7.92876 -5.16273,12.961488 1.36407,1.364078 2.56842,1.779099 5.16273,1.779099 2.59431,0 3.79866,-0.415021 5.16273,-1.779099 z m 63.24444,37.580541 c -7.15076,-3.19759 -5.45871,-13.922525 2.34765,-14.880325 7.5872,-0.930905 11.85717,7.992875 6.34943,13.269625 -2.484,2.37982 -5.66121,2.96825 -8.69708,1.6107 z"
           id="path1009-8" />
        <path
           style="fill:#546870;stroke-width:0.737029"
           d="m 128.23595,145.65429 c -6.60425,-5.03154 -8.1226,-6.59897 -10.48726,-10.82629 -2.60738,-4.66123 -6.45163,-15.30973 -7.43861,-20.60484 -0.36817,-1.97516 -0.21552,-2.39535 0.87017,-2.39535 1.74056,0 4.41469,-2.54987 4.9623,-4.7317 0.50805,-2.02426 -1.28703,-5.93325 -3.0322,-6.60294 -0.65619,-0.2518 -1.99511,-0.45783 -2.97537,-0.45783 -1.72097,0 -1.78237,-0.18387 -1.78432,-5.343459 -0.001,-2.938904 0.3699,-8.904265 0.82446,-13.256358 l 0.82648,-7.912895 -3.74299,-8.670267 c -2.05865,-4.768646 -4.28644,-10.991908 -4.95066,-13.829471 -3.760131,-16.063411 4.28885,-27.259488 23.01131,-32.008588 5.85,-1.483899 17.55088,-3.000308 23.15092,-3.000308 h 3.06115 l -4.35694,2.909456 c -2.39632,1.6002 -4.97299,3.59018 -5.72594,4.422176 -0.75295,0.831996 -2.06383,1.517078 -2.91308,1.522403 -3.71669,0.02331 -15.29431,2.9494 -19.16084,4.842651 -10.08702,4.939133 -12.21071,12.802011 -7.09991,26.287159 l 1.60615,4.237919 h 7.68585 7.68586 v -2.41561 c 0,-1.328584 0.5163,-3.152732 1.14733,-4.053661 1.08847,-1.554002 1.65359,-1.638053 11.01365,-1.638053 9.36006,0 9.92518,0.08405 11.01365,1.638053 0.63103,0.900929 1.14734,2.725077 1.14734,4.053661 v 2.41561 h 23.88794 23.88793 l 1.90809,2.267636 c 1.77065,2.104297 1.90809,2.791496 1.90809,9.540282 0,6.545801 -0.171,7.471451 -1.71102,9.261828 -1.3267,1.542389 -2.67809,2.120419 -6.01649,2.573449 -3.14415,0.426673 -4.81972,1.098218 -6.21204,2.489707 -1.80939,1.808309 -1.92537,2.396252 -2.27509,11.53406 l -0.36852,9.62862 -2.40697,2.14824 c -1.77446,1.58371 -3.1522,2.14823 -5.24287,2.14823 -16.69231,0 -32.70144,13.0135 -41.02552,33.34881 -1.30024,3.17643 -2.49585,5.90709 -2.6569,6.06815 -0.16106,0.16106 -3.76787,-2.35466 -8.01513,-5.59048 z m 21.39038,-36.38769 c 18.01367,-4.78536 18.42573,-5.06764 18.42573,-12.62249 0,-4.095635 -0.26001,-5.043101 -1.80907,-6.59216 l -1.80907,-1.809076 h -16.28165 -16.28165 l -1.80907,1.809076 c -1.70772,1.707711 -1.80907,2.276632 -1.80907,10.15441 0,6.47219 0.26584,8.7249 1.1844,10.03633 0.99423,1.41945 3.25474,2.85953 4.71183,3.0017 0.20268,0.0198 7.16761,-1.77022 15.47762,-3.97779 z m 0.23062,-1.99099 c -5.45767,-1.45242 -7.18488,-8.15612 -3.2392,-12.572098 1.84642,-2.066498 2.63689,-2.406976 5.58818,-2.406976 2.95129,0 3.74177,0.340478 5.58818,2.406976 5.39702,6.040298 -0.0516,14.670648 -7.93716,12.572098 z m -4.28076,-37.763511 c 5.03273,-5.032728 1.8746,-12.961488 -5.16273,-12.961488 -7.03733,0 -10.19546,7.92876 -5.16273,12.961488 1.36407,1.364078 2.56842,1.779099 5.16273,1.779099 2.59431,0 3.79866,-0.415021 5.16273,-1.779099 z m 63.9057,37.744221 c -4.57217,-1.21578 -6.82275,-8.419275 -3.77701,-12.089173 4.74596,-5.71853 13.93924,-2.7117 13.93924,4.559087 0,5.485536 -4.71428,8.978756 -10.16223,7.530086 z"
           id="path1007-3" />
        <path
           style="fill:#1a1a1a;stroke-width:0.737029"
           d="m 127.69179,144.87961 c -7.35046,-5.71692 -7.6542,-6.07152 -10.83481,-12.64927 -2.98084,-6.16462 -6.29321,-16.12192 -6.29321,-18.91799 0,-0.61858 0.95982,-1.54956 2.13293,-2.06883 5.60067,-2.47909 3.97725,-11.20818 -2.08448,-11.20818 -1.44931,0 -1.5218,-0.398611 -1.50769,-8.291576 0.008,-4.56037 0.33066,-10.447392 0.71669,-13.082272 0.69965,-4.775582 0.69024,-4.816929 -2.98505,-13.109034 -4.91521,-11.08963 -6.09952,-15.949087 -5.70745,-23.418915 0.25091,-4.780486 0.70774,-6.658475 2.26687,-9.318931 5.79749,-9.892667 19.09254,-15.095154 41.60879,-16.28194 2.52501,-0.133088 4.51499,-0.176298 4.42218,-0.09602 -4.36327,3.773991 -11.64757,8.421697 -13.19923,8.421697 -4.24617,0 -13.0138,2.34448 -18.13306,4.848811 -6.89384,3.372456 -9.18247,6.521438 -9.60909,13.221422 -0.29537,4.638679 0.21285,7.107712 2.87978,13.990545 l 1.4279,3.685147 7.72981,-0.231676 7.72981,-0.231677 v 6.566453 c 0,9.016579 -0.0144,9.006003 12.28904,9.006003 12.03558,0 12.03293,0.002 12.03293,-9.086645 V 60.23576 h 23.26487 c 15.25589,0 23.77713,0.274146 24.75288,0.796353 2.26761,1.213583 3.5743,5.23356 3.5743,10.996117 0,8.874025 -1.80579,11.162546 -9.50528,12.046295 -5.59162,0.641813 -6.28164,1.963115 -6.70936,12.847771 -0.22007,5.599974 -0.74846,10.042774 -1.31165,11.028484 -1.33011,2.32797 -4.70503,3.87703 -8.4468,3.87703 -10.441,0 -21.79284,6.2925 -29.8442,16.54311 -3.70836,4.72131 -10.39858,16.96382 -11.43397,20.92317 -0.22959,0.87796 -0.69724,1.56727 -1.03921,1.53181 -0.34198,-0.0354 -4.02488,-2.7113 -8.18424,-5.94629 z m 22.63839,-35.55058 c 8.13805,-2.18505 15.28647,-4.3795 15.88537,-4.87654 1.62744,-1.35065 2.76404,-6.474018 2.2285,-10.045227 -0.34077,-2.272454 -1.10821,-3.687896 -2.74734,-5.067136 l -2.27447,-1.913845 -15.80748,0.224035 -15.80748,0.224042 -1.7774,2.067928 c -1.66228,1.933995 -1.7774,2.63387 -1.7774,10.805673 v 8.73773 l 2.26763,1.9081 c 1.2472,1.04944 2.88548,1.90808 3.64062,1.90808 0.75514,0 8.03139,-1.78777 16.16945,-3.97284 z m -0.47323,-2.05342 c -5.45767,-1.45242 -7.18488,-8.15612 -3.2392,-12.572098 1.84642,-2.066498 2.63689,-2.406976 5.58818,-2.406976 2.95129,0 3.74177,0.340478 5.58818,2.406976 5.39702,6.040298 -0.0516,14.670648 -7.93716,12.572098 z m 59.62494,-0.0193 c -4.57217,-1.21578 -6.82275,-8.419277 -3.77701,-12.089175 4.74596,-5.718508 13.93924,-2.711678 13.93924,4.559109 0,5.485536 -4.71428,8.978756 -10.16223,7.530086 z"
           id="path1005-0" />
        <path
           style="stroke-width:2.20082347;stroke:#1a1a1a;fill:#1a1a1a;stroke-miterlimit:4;stroke-dasharray:none"
           d="m 127.69179,144.87961 c -7.35046,-5.71692 -7.6542,-6.07152 -10.83481,-12.64927 -3.06157,-6.33158 -6.29321,-16.13858 -6.29321,-19.09791 0,-0.71754 0.51257,-1.30462 1.13905,-1.30462 1.9843,0 4.75719,-3.43681 4.75719,-5.89623 0,-2.81558 -2.87061,-5.89624 -5.49422,-5.89624 h -1.87608 l 0.0148,-8.291576 c 0.008,-4.56037 0.33066,-10.447392 0.71669,-13.082272 0.69965,-4.775582 0.69024,-4.816929 -2.98504,-13.109034 -4.91522,-11.08963 -6.09953,-15.949087 -5.70746,-23.418915 0.25091,-4.780486 0.70774,-6.658475 2.26687,-9.318931 5.78728,-9.87525 19.12492,-15.104784 41.5075,-16.274613 l 4.48962,-0.234651 -4.40116,3.355213 c -6.13737,4.67881 -6.7841,4.965653 -13.42121,5.952757 -21.51205,3.19938 -27.64522,13.037334 -19.97612,32.042837 l 1.18963,2.948117 7.73431,-0.231676 7.73432,-0.231677 v 6.566453 c 0,9.016579 -0.0144,9.006003 12.28904,9.006003 12.03558,0 12.03293,0.002 12.03293,-9.086645 v -6.390972 h 23.26487 c 15.25589,0 23.77713,0.274146 24.75288,0.796353 2.26761,1.213583 3.5743,5.23356 3.5743,10.996117 0,8.874025 -1.80579,11.162546 -9.50528,12.046295 -5.59162,0.641813 -6.28164,1.963115 -6.70936,12.847771 -0.22007,5.599976 -0.74846,10.042776 -1.31165,11.028486 -1.33011,2.32797 -4.70503,3.87703 -8.4468,3.87703 -10.441,0 -21.79284,6.2925 -29.8442,16.54311 -3.70836,4.72131 -10.39858,16.96382 -11.43397,20.92317 -0.22959,0.87796 -0.69724,1.56727 -1.03921,1.53181 -0.34198,-0.0354 -4.02488,-2.7113 -8.18424,-5.94629 z m 22.63839,-35.55058 c 8.13805,-2.18505 15.28647,-4.3795 15.88537,-4.87654 1.62744,-1.35065 2.76404,-6.474018 2.2285,-10.045227 -0.34077,-2.272454 -1.10821,-3.687896 -2.74734,-5.067136 l -2.27447,-1.913845 -15.80748,0.224035 -15.80748,0.224042 -1.7774,2.067928 c -1.66228,1.933995 -1.7774,2.63387 -1.7774,10.805673 v 8.73773 l 2.26763,1.9081 c 1.2472,1.04944 2.88548,1.90808 3.64062,1.90808 0.75514,0 8.03139,-1.78777 16.16945,-3.97284 z"
           id="path1003-1" />
        <path
           style="fill:#253137;stroke-width:0.737029"
           d="m 107.42987,66.66192 c -4.51896,-9.898868 -5.90498,-14.514142 -6.27538,-20.896198 -0.46785,-8.061168 1.03859,-12.606879 5.73396,-17.302244 1.91547,-1.915473 5.23775,-4.372041 7.38284,-5.45904 5.98554,-3.033101 16.89739,-5.514203 26.14217,-5.944124 7.93684,-0.369096 8.06936,-0.349189 6.30191,0.946644 -0.99298,0.728018 -3.09992,2.4038 -4.68209,3.72396 -2.99412,2.49829 -3.64596,2.73466 -9.72714,3.52726 -5.80274,0.756308 -14.58774,3.804885 -17.9196,6.21847 -6.52226,4.724703 -7.73328,12.210706 -3.81937,23.609798 l 2.21448,6.449596 -1.2932,5.591764 -1.29319,5.591763 z"
           id="path1001-7" />
      </g>
      <rect
         style="fill:#614113;fill-opacity:1;stroke:none;stroke-width:2.94812;stroke-linecap:round;stroke-linejoin:round"
         id="rect897"
         width="46.978447"
         height="17.611986"
         x="65.376511"
         y="133.70488" />
      <path
         style="fill:none;stroke:#1a1a1a;stroke-width:2.94812;stroke-linecap:round;stroke-linejoin:miter;stroke-miterlimit:4;stroke-dasharray:none;stroke-opacity:1"
         d="m 68.481341,142.87527 c 10.348783,16.52862 34.926659,14.60722 45.217719,0"
         id="path899"
         sodipodi:nodetypes="cc" />
      <path
         style="fill:none;stroke:#1a1a1a;stroke-width:4.42218;stroke-linecap:round;stroke-linejoin:miter;stroke-miterlimit:4;stroke-dasharray:none;stroke-opacity:1"
         d="m 112.51096,99.524882 c 5.51829,-8.813573 15.59708,-7.789023 21.08459,0"
         id="path899-3"
         sodipodi:nodetypes="cc" />
      <circle
         style="fill:#d03940;fill-opacity:1;stroke:none;stroke-width:6;stroke-linecap:round;stroke-linejoin:round;stroke-miterlimit:4;stroke-dasharray:none;stroke-opacity:1"
         id="path1069"
         sodipodi:type="arc"
         sodipodi:cx="16.629881"
         sodipodi:cy="105.11197"
         sodipodi:rx="7.2196841"
         sodipodi:ry="7.2196841"
         sodipodi:start="0"
         sodipodi:end="6.2797645"
         sodipodi:open="true"
         sodipodi:arc-type="arc"
         d="m 23.849565,105.11197 a 7.2196841,7.2196841 0 0 1 -7.21351,7.21968 7.2196841,7.2196841 0 0 1 -7.2258477,-7.20733 7.2196841,7.2196841 0 0 1 7.2011507,-7.232011 7.2196841,7.2196841 0 0 1 7.238165,7.194961" />
      <circle
         style="fill:#1a1a1a;fill-opacity:1;stroke:none;stroke-width:6.93165;stroke-linecap:round;stroke-linejoin:round;stroke-miterlimit:4;stroke-dasharray:none;stroke-opacity:1"
         id="path1069-1"
         sodipodi:type="arc"
         sodipodi:cx="59.456165"
         sodipodi:cy="99.43367"
         sodipodi:rx="8.340723"
         sodipodi:ry="8.340723"
         sodipodi:start="0"
         sodipodi:end="6.2797645"
         sodipodi:open="true"
         sodipodi:arc-type="arc"
         d="m 67.796888,99.43367 a 8.340723,8.340723 0 0 1 -8.33359,8.34072 8.340723,8.340723 0 0 1 -8.347844,-8.326454 8.340723,8.340723 0 0 1 8.319312,-8.354962 8.340723,8.340723 0 0 1 8.362074,8.312164" />
      <circle
         style="fill:#1a1a1a;fill-opacity:1;stroke:none;stroke-width:6.93165;stroke-linecap:round;stroke-linejoin:round;stroke-miterlimit:4;stroke-dasharray:none;stroke-opacity:1"
         id="path1069-1-9"
         sodipodi:type="arc"
         sodipodi:cx="119.2011"
         sodipodi:cy="99.490883"
         sodipodi:rx="8.340723"
         sodipodi:ry="8.340723"
         sodipodi:start="0"
         sodipodi:end="6.2797645"
         sodipodi:open="true"
         sodipodi:arc-type="arc"
         d="m 127.54183,99.490883 a 8.340723,8.340723 0 0 1 -8.33359,8.340717 8.340723,8.340723 0 0 1 -8.34785,-8.326451 8.340723,8.340723 0 0 1 8.31931,-8.354962 8.340723,8.340723 0 0 1 8.36208,8.312164" />
    </g>
    <g
       id="g1104-4"
       transform="matrix(0.90875076,0,0,0.90875076,111.09627,15.806665)">
      <g
         id="g999-3-9"
         transform="translate(-92.555994,-0.32329375)">
        <path
           style="fill:#fcb44c;stroke-width:0.737029"
           d="m 172.52731,174.84958 c -9.69632,-2.19451 -20.43919,-8.42636 -29.90276,-17.34636 -3.24293,-3.05666 -9.63103,-8.36539 -14.19579,-11.79719 -7.72239,-5.8057 -8.49909,-6.62402 -11.16896,-11.76733 -2.52635,-4.86684 -5.74581,-14.06588 -7.02899,-20.08405 -0.23768,-1.11476 -0.86551,-2.02684 -1.39518,-2.02684 -0.52967,0 -1.73944,-0.82646 -2.6884,-1.83657 -2.34583,-2.49703 -2.25229,-5.75218 0.24004,-8.35362 1.74034,-1.81653 1.96541,-2.632687 1.96541,-7.127136 0,-2.791632 0.36401,-8.743417 0.8089,-13.226199 l 0.8089,-8.150513 -2.89999,-6.26475 c -4.93504,-10.661025 -6.39268,-15.845126 -6.42427,-22.847911 -0.0336,-7.454585 1.4996,-11.481847 6.13666,-16.118903 6.35551,-6.355514 16.72617,-9.869374 33.17631,-11.24104 8.52072,-0.710485 10.92572,-1.204063 15.93189,-3.2697 9.74408,-4.0205891 14.51394,-5.0030707 24.32197,-5.0097614 10.90405,-0.00744 16.4816,1.292238 26.53306,6.1827144 12.19261,5.932244 20.87554,14.61429 26.979,26.976266 4.94819,10.02207 6.52973,17.731487 6.55677,31.961599 l 0.0203,10.686927 3.62816,2.000732 c 10.98739,6.058934 10.52454,22.121965 -0.80397,27.901345 -1.96683,1.0034 -2.93767,2.05101 -3.20411,3.45746 -1.46109,7.71287 -3.04215,12.53039 -6.22561,18.96955 -12.57466,25.43474 -40.58828,42.98925 -61.16934,38.33128 z M 145.57619,69.512099 c 5.03273,-5.032728 1.8746,-12.961488 -5.16273,-12.961488 -7.03733,0 -10.19546,7.92876 -5.16273,12.961488 1.36407,1.364078 2.56842,1.779099 5.16273,1.779099 2.59431,0 3.79866,-0.415021 5.16273,-1.779099 z M 122.39591,53.003338 c 2.57431,-8.977553 6.5313,-16.647397 11.86741,-23.002669 4.91718,-5.856322 4.99551,-5.797331 -4.96734,-3.741142 -19.28071,3.979261 -24.50785,12.621933 -18.00781,29.774522 l 1.61969,4.27413 3.75992,-0.220469 3.75991,-0.220467 z"
           id="path1013-9-2" />
        <path
           style="fill:#fc9913;stroke-width:0.737029"
           d="m 128.24986,145.66495 c -6.61389,-5.03893 -8.13789,-6.61107 -10.50512,-10.83695 -2.37033,-4.2314 -6.08744,-14.52051 -7.51041,-20.7891 -0.23005,-1.01341 -1.49377,-2.51043 -2.80827,-3.3267 -1.97792,-1.22823 -2.42838,-2.00806 -2.61256,-4.52282 -0.185,-2.52594 0.0948,-3.28834 1.65832,-4.51818 1.71234,-1.34693 1.88068,-1.965264 1.87884,-6.901135 -0.001,-2.981903 0.3699,-8.982449 0.82446,-13.334542 l 0.82648,-7.912895 -3.74299,-8.670267 c -2.05865,-4.768646 -4.28644,-10.991908 -4.95066,-13.829471 -3.760131,-16.063411 4.28885,-27.259488 23.01131,-32.008588 5.86348,-1.487318 17.55392,-3.000308 23.18252,-3.000308 h 3.09275 l -5.37469,3.869405 c -2.95608,2.128172 -5.74432,4.088075 -6.19608,4.355339 -0.45176,0.267264 -4.30523,1.129193 -8.56327,1.915396 -20.28405,3.745248 -25.81588,12.350026 -19.18587,29.843705 l 1.60615,4.237919 h 7.68585 7.68586 v -2.41561 c 0,-1.328584 0.5163,-3.152732 1.14733,-4.053661 1.08847,-1.554002 1.65359,-1.638053 11.01365,-1.638053 9.36006,0 9.92518,0.08405 11.01365,1.638053 0.63103,0.900929 1.14734,2.725077 1.14734,4.053661 v 2.41561 h 23.88794 23.88793 l 1.90809,2.267636 c 1.77065,2.104297 1.90809,2.791496 1.90809,9.540282 0,6.545801 -0.171,7.471451 -1.71102,9.261828 -1.3267,1.542389 -2.67809,2.120419 -6.01649,2.573449 -3.14187,0.426364 -4.81942,1.098218 -6.20716,2.485963 -1.79552,1.795521 -1.9145,2.384541 -2.13085,10.549927 -0.12603,4.756527 -0.56675,9.520967 -0.97938,10.587647 -1.02563,2.65137 -4.29303,4.04329 -11.69924,4.98387 -15.53129,1.97247 -28.65382,13.80027 -36.47512,32.87629 -1.16342,2.83756 -2.30563,5.39255 -2.53825,5.67775 -0.23262,0.2852 -3.90423,-2.13376 -8.15913,-5.37545 z m 16.17404,-35.08493 c 7.56144,-1.96131 7.65592,-2.01229 5.4198,-2.92473 -8.34758,-3.40616 -6.49695,-15.727269 2.36223,-15.727269 6.82016,0 10.25591,7.95094 5.74983,13.306119 -1.69844,2.01848 -1.77919,2.30231 -0.55278,1.94299 0.78992,-0.23144 2.828,-0.78018 4.52907,-1.21945 4.55324,-1.17578 6.12001,-3.57504 6.12001,-9.371862 0,-4.033747 -0.26459,-4.989394 -1.80907,-6.533868 -1.80836,-1.808368 -1.81528,-1.809076 -17.62842,-1.809076 -8.70065,0 -16.35625,0.206022 -17.01244,0.457828 -2.43409,0.934052 -3.34965,4.333482 -3.34965,12.437088 0,7.30824 0.11599,7.9249 1.80907,9.61798 2.35218,2.35219 4.72849,2.32311 14.36235,-0.17575 z m 1.15229,-41.067921 c 5.03273,-5.032728 1.8746,-12.961488 -5.16273,-12.961488 -7.03733,0 -10.19546,7.92876 -5.16273,12.961488 1.36407,1.364078 2.56842,1.779099 5.16273,1.779099 2.59431,0 3.79866,-0.415021 5.16273,-1.779099 z m 14.8599,77.938801 c -0.27024,-0.27024 -0.49135,-2.09439 -0.49135,-4.05366 v -3.56231 h 20.26831 20.26831 v 4.05366 4.05366 H 180.7044 c -10.87733,0 -19.99807,-0.2211 -20.26831,-0.49135 z m 79.84485,-47.3367 c 0,-16.56991 -0.0941,-16.329079 4.95081,-12.674585 8.18642,5.930205 8.12126,19.371645 -0.12111,24.985835 -5.09549,3.47072 -4.8297,4.14822 -4.8297,-12.31125 z m -32.198,6.59109 c -2.91319,-1.7763 -3.91644,-3.58576 -3.91644,-7.063711 0,-3.693114 3.90175,-7.714796 7.48085,-7.710801 6.134,0.0066 10.17534,5.949515 7.6562,11.258212 -1.24599,2.62572 -4.78125,4.95644 -7.50963,4.95092 -0.74947,-0.001 -2.41941,-0.64709 -3.71098,-1.43462 z"
           id="path1011-2-5" />
        <path
           style="fill:#d03940;stroke-width:0.737029"
           d="m 128.24986,145.66495 c -6.61389,-5.03893 -8.13789,-6.61107 -10.50512,-10.83695 -2.37033,-4.2314 -6.08744,-14.52051 -7.51041,-20.7891 -0.23005,-1.01341 -1.49377,-2.51043 -2.80827,-3.3267 -1.97792,-1.22823 -2.42838,-2.00806 -2.61256,-4.52282 -0.185,-2.52594 0.0948,-3.28834 1.65832,-4.51818 1.71234,-1.34693 1.88068,-1.965264 1.87884,-6.901135 -0.001,-2.981903 0.3699,-8.982449 0.82446,-13.334542 l 0.82648,-7.912895 -3.74299,-8.670267 c -2.05865,-4.768646 -4.28644,-10.991908 -4.95066,-13.829471 -3.760131,-16.063411 4.28885,-27.259488 23.01131,-32.008588 5.86348,-1.487318 17.55392,-3.000308 23.18252,-3.000308 h 3.09275 l -5.37469,3.869405 c -2.95608,2.128172 -5.74432,4.088075 -6.19608,4.355339 -0.45176,0.267264 -4.30523,1.129193 -8.56327,1.915396 -20.28405,3.745248 -25.81588,12.350026 -19.18587,29.843705 l 1.60615,4.237919 h 7.68585 7.68586 v -2.41561 c 0,-1.328584 0.5163,-3.152732 1.14733,-4.053661 1.08847,-1.554002 1.65359,-1.638053 11.01365,-1.638053 9.36006,0 9.92518,0.08405 11.01365,1.638053 0.63103,0.900929 1.14734,2.725077 1.14734,4.053661 v 2.41561 h 23.88794 23.88793 l 1.90809,2.267636 c 1.77065,2.104297 1.90809,2.791496 1.90809,9.540282 0,6.545801 -0.171,7.471451 -1.71102,9.261828 -1.3267,1.542389 -2.67809,2.120419 -6.01649,2.573449 -3.14187,0.426364 -4.81942,1.098218 -6.20716,2.485963 -1.79552,1.795521 -1.9145,2.384541 -2.13085,10.549927 -0.12603,4.756527 -0.56675,9.520967 -0.97938,10.587647 -1.02563,2.65137 -4.29303,4.04329 -11.69924,4.98387 -15.53129,1.97247 -28.65382,13.80027 -36.47512,32.87629 -1.16342,2.83756 -2.30563,5.39255 -2.53825,5.67775 -0.23262,0.2852 -3.90423,-2.13376 -8.15913,-5.37545 z m 15.96732,-35.02111 c 3.98845,-1.05657 7.37049,-2.03213 7.51564,-2.16792 0.14516,-0.13579 -0.8894,-0.72879 -2.29902,-1.31777 -3.33378,-1.39294 -4.96668,-3.81285 -4.96668,-7.360505 0,-2.267368 0.51775,-3.375565 2.5059,-5.363724 3.48646,-3.486466 6.97936,-3.486466 10.46582,0 3.43904,3.439038 3.54039,7.628439 0.26383,10.904999 l -2.24207,2.24207 2.05781,-0.49703 c 6.28102,-1.51706 7.64274,-2.09814 9.02007,-3.84914 1.16924,-1.48645 1.51358,-2.99909 1.51358,-6.649002 0,-4.033747 -0.26459,-4.989394 -1.80907,-6.533868 -1.80836,-1.808368 -1.81528,-1.809076 -17.62842,-1.809076 -8.70065,0 -16.35625,0.206022 -17.01244,0.457828 -2.43409,0.934052 -3.34965,4.333482 -3.34965,12.437088 0,7.30824 0.11599,7.9249 1.80907,9.61798 2.3473,2.3473 4.94981,2.32672 14.15563,-0.11193 z m 1.35901,-41.131741 c 5.03273,-5.032728 1.8746,-12.961488 -5.16273,-12.961488 -7.03733,0 -10.19546,7.92876 -5.16273,12.961488 1.36407,1.364078 2.56842,1.779099 5.16273,1.779099 2.59431,0 3.79866,-0.415021 5.16273,-1.779099 z m 63.24444,37.580541 c -7.15076,-3.19759 -5.45871,-13.922525 2.34765,-14.880325 7.5872,-0.930905 11.85717,7.992875 6.34943,13.269625 -2.484,2.37982 -5.66121,2.96825 -8.69708,1.6107 z"
           id="path1009-8-7" />
        <path
           style="fill:#546870;stroke-width:0.737029"
           d="m 128.23595,145.65429 c -6.60425,-5.03154 -8.1226,-6.59897 -10.48726,-10.82629 -2.60738,-4.66123 -6.45163,-15.30973 -7.43861,-20.60484 -0.36817,-1.97516 -0.21552,-2.39535 0.87017,-2.39535 1.74056,0 4.41469,-2.54987 4.9623,-4.7317 0.50805,-2.02426 -1.28703,-5.93325 -3.0322,-6.60294 -0.65619,-0.2518 -1.99511,-0.45783 -2.97537,-0.45783 -1.72097,0 -1.78237,-0.18387 -1.78432,-5.343459 -0.001,-2.938904 0.3699,-8.904265 0.82446,-13.256358 l 0.82648,-7.912895 -3.74299,-8.670267 c -2.05865,-4.768646 -4.28644,-10.991908 -4.95066,-13.829471 -3.760131,-16.063411 4.28885,-27.259488 23.01131,-32.008588 5.85,-1.483899 17.55088,-3.000308 23.15092,-3.000308 h 3.06115 l -4.35694,2.909456 c -2.39632,1.6002 -4.97299,3.59018 -5.72594,4.422176 -0.75295,0.831996 -2.06383,1.517078 -2.91308,1.522403 -3.71669,0.02331 -15.29431,2.9494 -19.16084,4.842651 -10.08702,4.939133 -12.21071,12.802011 -7.09991,26.287159 l 1.60615,4.237919 h 7.68585 7.68586 v -2.41561 c 0,-1.328584 0.5163,-3.152732 1.14733,-4.053661 1.08847,-1.554002 1.65359,-1.638053 11.01365,-1.638053 9.36006,0 9.92518,0.08405 11.01365,1.638053 0.63103,0.900929 1.14734,2.725077 1.14734,4.053661 v 2.41561 h 23.88794 23.88793 l 1.90809,2.267636 c 1.77065,2.104297 1.90809,2.791496 1.90809,9.540282 0,6.545801 -0.171,7.471451 -1.71102,9.261828 -1.3267,1.542389 -2.67809,2.120419 -6.01649,2.573449 -3.14415,0.426673 -4.81972,1.098218 -6.21204,2.489707 -1.80939,1.808309 -1.92537,2.396252 -2.27509,11.53406 l -0.36852,9.62862 -2.40697,2.14824 c -1.77446,1.58371 -3.1522,2.14823 -5.24287,2.14823 -16.69231,0 -32.70144,13.0135 -41.02552,33.34881 -1.30024,3.17643 -2.49585,5.90709 -2.6569,6.06815 -0.16106,0.16106 -3.76787,-2.35466 -8.01513,-5.59048 z m 21.39038,-36.38769 c 18.01367,-4.78536 18.42573,-5.06764 18.42573,-12.62249 0,-4.095635 -0.26001,-5.043101 -1.80907,-6.59216 l -1.80907,-1.809076 h -16.28165 -16.28165 l -1.80907,1.809076 c -1.70772,1.707711 -1.80907,2.276632 -1.80907,10.15441 0,6.47219 0.26584,8.7249 1.1844,10.03633 0.99423,1.41945 3.25474,2.85953 4.71183,3.0017 0.20268,0.0198 7.16761,-1.77022 15.47762,-3.97779 z m 0.23062,-1.99099 c -5.45767,-1.45242 -7.18488,-8.15612 -3.2392,-12.572098 1.84642,-2.066498 2.63689,-2.406976 5.58818,-2.406976 2.95129,0 3.74177,0.340478 5.58818,2.406976 5.39702,6.040298 -0.0516,14.670648 -7.93716,12.572098 z m -4.28076,-37.763511 c 5.03273,-5.032728 1.8746,-12.961488 -5.16273,-12.961488 -7.03733,0 -10.19546,7.92876 -5.16273,12.961488 1.36407,1.364078 2.56842,1.779099 5.16273,1.779099 2.59431,0 3.79866,-0.415021 5.16273,-1.779099 z m 63.9057,37.744221 c -4.57217,-1.21578 -6.82275,-8.419275 -3.77701,-12.089173 4.74596,-5.71853 13.93924,-2.7117 13.93924,4.559087 0,5.485536 -4.71428,8.978756 -10.16223,7.530086 z"
           id="path1007-3-4" />
        <path
           style="fill:#764618;stroke-width:0.737029"
           d="m 127.69179,144.87961 c -7.35046,-5.71692 -7.6542,-6.07152 -10.83481,-12.64927 -2.98084,-6.16462 -6.29321,-16.12192 -6.29321,-18.91799 0,-0.61858 0.95982,-1.54956 2.13293,-2.06883 5.60067,-2.47909 3.97725,-11.20818 -2.08448,-11.20818 -1.44931,0 -1.5218,-0.398611 -1.50769,-8.291576 0.008,-4.56037 0.33066,-10.447392 0.71669,-13.082272 0.69965,-4.775582 0.69024,-4.816929 -2.98505,-13.109034 -4.91521,-11.08963 -6.09952,-15.949087 -5.70745,-23.418915 0.25091,-4.780486 0.70774,-6.658475 2.26687,-9.318931 5.79749,-9.892667 19.09254,-15.095154 41.60879,-16.28194 2.52501,-0.133088 4.51499,-0.176298 4.42218,-0.09602 -4.36327,3.773991 -11.64757,8.421697 -13.19923,8.421697 -4.24617,0 -13.0138,2.34448 -18.13306,4.848811 -6.89384,3.372456 -9.18247,6.521438 -9.60909,13.221422 -0.29537,4.638679 0.21285,7.107712 2.87978,13.990545 l 1.4279,3.685147 7.72981,-0.231676 7.72981,-0.231677 v 6.566453 c 0,9.016579 -0.0144,9.006003 12.28904,9.006003 12.03558,0 12.03293,0.002 12.03293,-9.086645 V 60.23576 h 23.26487 c 15.25589,0 23.77713,0.274146 24.75288,0.796353 2.26761,1.213583 3.5743,5.23356 3.5743,10.996117 0,8.874025 -1.80579,11.162546 -9.50528,12.046295 -5.59162,0.641813 -6.28164,1.963115 -6.70936,12.847771 -0.22007,5.599974 -0.74846,10.042774 -1.31165,11.028484 -1.33011,2.32797 -4.70503,3.87703 -8.4468,3.87703 -10.441,0 -21.79284,6.2925 -29.8442,16.54311 -3.70836,4.72131 -10.39858,16.96382 -11.43397,20.92317 -0.22959,0.87796 -0.69724,1.56727 -1.03921,1.53181 -0.34198,-0.0354 -4.02488,-2.7113 -8.18424,-5.94629 z m 22.63839,-35.55058 c 8.13805,-2.18505 15.28647,-4.3795 15.88537,-4.87654 1.62744,-1.35065 2.76404,-6.474018 2.2285,-10.045227 -0.34077,-2.272454 -1.10821,-3.687896 -2.74734,-5.067136 l -2.27447,-1.913845 -15.80748,0.224035 -15.80748,0.224042 -1.7774,2.067928 c -1.66228,1.933995 -1.7774,2.63387 -1.7774,10.805673 v 8.73773 l 2.26763,1.9081 c 1.2472,1.04944 2.88548,1.90808 3.64062,1.90808 0.75514,0 8.03139,-1.78777 16.16945,-3.97284 z m -0.47323,-2.05342 c -5.45767,-1.45242 -7.18488,-8.15612 -3.2392,-12.572098 1.84642,-2.066498 2.63689,-2.406976 5.58818,-2.406976 2.95129,0 3.74177,0.340478 5.58818,2.406976 5.39702,6.040298 -0.0516,14.670648 -7.93716,12.572098 z m 59.62494,-0.0193 c -4.57217,-1.21578 -6.82275,-8.419277 -3.77701,-12.089175 4.74596,-5.718508 13.93924,-2.711678 13.93924,4.559109 0,5.485536 -4.71428,8.978756 -10.16223,7.530086 z"
           id="path1005-0-9" />
        <path
           style="fill:#36464e;stroke-width:0.737029"
           d="m 127.69179,144.87961 c -7.35046,-5.71692 -7.6542,-6.07152 -10.83481,-12.64927 -3.06157,-6.33158 -6.29321,-16.13858 -6.29321,-19.09791 0,-0.71754 0.51257,-1.30462 1.13905,-1.30462 1.9843,0 4.75719,-3.43681 4.75719,-5.89623 0,-2.81558 -2.87061,-5.89624 -5.49422,-5.89624 h -1.87608 l 0.0148,-8.291576 c 0.008,-4.56037 0.33066,-10.447392 0.71669,-13.082272 0.69965,-4.775582 0.69024,-4.816929 -2.98504,-13.109034 -4.91522,-11.08963 -6.09953,-15.949087 -5.70746,-23.418915 0.25091,-4.780486 0.70774,-6.658475 2.26687,-9.318931 5.78728,-9.87525 19.12492,-15.104784 41.5075,-16.274613 l 4.48962,-0.234651 -4.40116,3.355213 c -6.13737,4.67881 -6.7841,4.965653 -13.42121,5.952757 -21.51205,3.19938 -27.64522,13.037334 -19.97612,32.042837 l 1.18963,2.948117 7.73431,-0.231676 7.73432,-0.231677 v 6.566453 c 0,9.016579 -0.0144,9.006003 12.28904,9.006003 12.03558,0 12.03293,0.002 12.03293,-9.086645 v -6.390972 h 23.26487 c 15.25589,0 23.77713,0.274146 24.75288,0.796353 2.26761,1.213583 3.5743,5.23356 3.5743,10.996117 0,8.874025 -1.80579,11.162546 -9.50528,12.046295 -5.59162,0.641813 -6.28164,1.963115 -6.70936,12.847771 -0.22007,5.599976 -0.74846,10.042776 -1.31165,11.028486 -1.33011,2.32797 -4.70503,3.87703 -8.4468,3.87703 -10.441,0 -21.79284,6.2925 -29.8442,16.54311 -3.70836,4.72131 -10.39858,16.96382 -11.43397,20.92317 -0.22959,0.87796 -0.69724,1.56727 -1.03921,1.53181 -0.34198,-0.0354 -4.02488,-2.7113 -8.18424,-5.94629 z m 22.63839,-35.55058 c 8.13805,-2.18505 15.28647,-4.3795 15.88537,-4.87654 1.62744,-1.35065 2.76404,-6.474018 2.2285,-10.045227 -0.34077,-2.272454 -1.10821,-3.687896 -2.74734,-5.067136 l -2.27447,-1.913845 -15.80748,0.224035 -15.80748,0.224042 -1.7774,2.067928 c -1.66228,1.933995 -1.7774,2.63387 -1.7774,10.805673 v 8.73773 l 2.26763,1.9081 c 1.2472,1.04944 2.88548,1.90808 3.64062,1.90808 0.75514,0 8.03139,-1.78777 16.16945,-3.97284 z"
           id="path1003-1-9" />
        <path
           style="fill:#253137;stroke-width:0.737029"
           d="m 107.42987,66.66192 c -4.51896,-9.898868 -5.90498,-14.514142 -6.27538,-20.896198 -0.46785,-8.061168 1.03859,-12.606879 5.73396,-17.302244 1.91547,-1.915473 5.23775,-4.372041 7.38284,-5.45904 5.98554,-3.033101 16.89739,-5.514203 26.14217,-5.944124 7.93684,-0.369096 8.06936,-0.349189 6.30191,0.946644 -0.99298,0.728018 -3.09992,2.4038 -4.68209,3.72396 -2.99412,2.49829 -3.64596,2.73466 -9.72714,3.52726 -5.80274,0.756308 -14.58774,3.804885 -17.9196,6.21847 -6.52226,4.724703 -7.73328,12.210706 -3.81937,23.609798 l 2.21448,6.449596 -1.2932,5.591764 -1.29319,5.591763 z"
           id="path1001-7-4" />
      </g>
      <rect
         style="fill:#feb64c;fill-opacity:0.996078;stroke:none;stroke-width:2.94812;stroke-linecap:round;stroke-linejoin:round"
         id="rect897-5"
         width="46.978447"
         height="17.611986"
         x="65.376511"
         y="133.70488" />
      <path
         style="fill:none;stroke:#784719;stroke-width:2.94812;stroke-linecap:round;stroke-linejoin:miter;stroke-miterlimit:4;stroke-dasharray:none;stroke-opacity:1"
         d="m 68.481341,142.87527 c 10.348783,16.52862 34.926659,14.60722 45.217719,0"
         id="path899-9"
         sodipodi:nodetypes="cc" />
      <path
         style="fill:none;stroke:#784719;stroke-width:4.42218;stroke-linecap:round;stroke-linejoin:miter;stroke-miterlimit:4;stroke-dasharray:none;stroke-opacity:1"
         d="m 114.71178,99.524882 c 5.51829,-8.813573 15.59708,-7.789023 21.08459,0"
         id="path899-3-3"
         sodipodi:nodetypes="cc" />
      <circle
         style="fill:#d03940;fill-opacity:1;stroke:none;stroke-width:6;stroke-linecap:round;stroke-linejoin:round;stroke-miterlimit:4;stroke-dasharray:none;stroke-opacity:1"
         id="path1069-5"
         sodipodi:type="arc"
         sodipodi:cx="16.629881"
         sodipodi:cy="105.11197"
         sodipodi:rx="7.2196841"
         sodipodi:ry="7.2196841"
         sodipodi:start="0"
         sodipodi:end="6.2797645"
         sodipodi:open="true"
         sodipodi:arc-type="arc"
         d="m 23.849565,105.11197 a 7.2196841,7.2196841 0 0 1 -7.21351,7.21968 7.2196841,7.2196841 0 0 1 -7.2258477,-7.20733 7.2196841,7.2196841 0 0 1 7.2011507,-7.232011 7.2196841,7.2196841 0 0 1 7.238165,7.194961" />
      <circle
         style="fill:#764618;fill-opacity:1;stroke:none;stroke-width:6.93165;stroke-linecap:round;stroke-linejoin:round;stroke-miterlimit:4;stroke-dasharray:none;stroke-opacity:1"
         id="path1069-1-7"
         sodipodi:type="arc"
         sodipodi:cx="59.456165"
         sodipodi:cy="99.43367"
         sodipodi:rx="8.340723"
         sodipodi:ry="8.340723"
         sodipodi:start="0"
         sodipodi:end="6.2797645"
         sodipodi:open="true"
         sodipodi:arc-type="arc"
         d="m 67.796888,99.43367 a 8.340723,8.340723 0 0 1 -8.33359,8.34072 8.340723,8.340723 0 0 1 -8.347844,-8.326454 8.340723,8.340723 0 0 1 8.319312,-8.354962 8.340723,8.340723 0 0 1 8.362074,8.312164" />
    </g>
  </g>
</svg>
